Data Visualization - Mini-Project 1
…
birth <- read_csv("https://raw.githubusercontent.com/reisanar/datasets/master/us_births_00_14.csv")

## Parsed with column specification:
## cols(
##   year = col_double(),
##   month = col_double(),
##   date_of_month = col_double(),
##   date = col_date(format = ""),
##   day_of_week = col_character(),
##   births = col_double()
## )

birth

## # A tibble: 5,479 x 6
##     year month date_of_month date       day_of_week births
##    <dbl> <dbl>         <dbl> <date>     <chr>        <dbl>
##  1  2000     1             1 2000-01-01 Sat           9083
##  2  2000     1             2 2000-01-02 Sun           8006
##  3  2000     1             3 2000-01-03 Mon          11363
##  4  2000     1             4 2000-01-04 Tues         13032
##  5  2000     1             5 2000-01-05 Wed          12558
##  6  2000     1             6 2000-01-06 Thurs        12466
##  7  2000     1             7 2000-01-07 Fri          12516
##  8  2000     1             8 2000-01-08 Sat           8934
##  9  2000     1             9 2000-01-09 Sun           7949
## 10  2000     1            10 2000-01-10 Mon          11668
## # ... with 5,469 more rows
…
