…
weather_tpa$MonthAbb<-factor(weather_tpa$MonthAbb,
                             levels = c("January","February","March", "April",
              "May","Jun", "July","August","September", 
              "October","November","December"))

weather_tpa<-weather_tpa[order(weather_tpa$MonthAbb),]

weather_tpa
```

```
## # A tibble: 367 x 7
##     year month   day precipitation max_temp min_temp MonthAbb
##    <dbl> <fct> <dbl>         <dbl>    <dbl>    <dbl> <fct>   
##  1  2016 1         1          0          81       70 January 
##  2  2016 1         2          0          73       59 January 
##  3  2016 1         3          0.18       61       50 January 
##  4  2016 1         4          0          66       49 January 
##  5  2016 1         5          0          68       49 January 
##  6  2016 1         6          0          67       54 January 
##  7  2016 1         7          0          72       56 January 
##  8  2016 1         8          0.54       76       63 January 
##  9  2016 1         9          0.65       78       62 January 
## 10  2016 1        10          0          72       56 January 
## # … with 357 more rows
```



```r
# Cleaning the data
weather_tpa<-weather_tpa%>%
  mutate(max_temp=as.double(max_temp),
         min_temp=as.double(min_temp), 
         precipitation=as.double(precipitation))%>%
           arrange(month)
weather_tpa
```

```
## # A tibble: 367 x 7
##     year month   day precipitation max_temp min_temp MonthAbb
##    <dbl> <fct> <dbl>         <dbl>    <dbl>    <dbl> <fct>   
##  1  2016 1         1          0          81       70 January 
##  2  2016 1         2          0          73       59 January 
##  3  2016 1         3          0.18       61       50 January 
##  4  2016 1         4          0          66       49 January 
##  5  2016 1         5          0          68       49 January 
##  6  2016 1         6          0          67       54 January 
##  7  2016 1         7          0          72       56 January 
##  8  2016 1         8          0.54       76       63 January 
##  9  2016 1         9          0.65       78       62 January 
## 10  2016 1        10          0          72       56 January 
## # … with 357 more rows
```
…
